Explore And Visualize
…
dat |>
  count(location_abbr, sort = TRUE)

# A tibble: 26 × 2
   location_abbr     n
   <chr>         <int>
 1 AR               47
 2 CO               47
 3 DE               47
 4 GA               47
 5 HI               47
 6 MA               47
 7 MD               47
 8 ME               47
 9 MI               47
10 MN               47
# ℹ 16 more rows
…
