Difference Plots
…
state_overall

# A tibble: 26 × 4
   location      alcohol_use binge_drinking difference
   <chr>               <dbl>          <dbl>      <dbl>
 1 Utah                 23.5           12.4       11.1
 2 Georgia              34.1           12.6       21.5
 3 West Virginia        42.1           17.1       25  
 4 Arkansas             49.6           23.9       25.7
 5 New York City        42.3           14.9       27.4
 6 New Mexico           49.6           20.7       28.9
 7 Hawaii               53.1           24         29.1
 8 Wyoming              58.6           28.2       30.4
 9 Oklahoma             48.5           17.9       30.6
10 Nebraska             64.7           33.4       31.3
# ℹ 16 more rows
…
